Artificial Neural Network correlation
…
# We can see that the errors in `z` with `ANN10` are less than `HY` with a `r sum_t_err2[1,1]`% and `r sum_t_err2[6,1]`% for `Tpr = 1.05`, and a `r sum_t_err2[1,2]`% and `r sum_t_err2[6,2]`% for `Tpr = 1.10`. 

Prepare to plot SK chart vs ANN10 model.

library(zFactor)
library(tibble)

tpr2 <- c(1.05, 1.1, 1.2, 1.3) 
ppr2 <- c(0.5, 1.0, 1.5, 2, 2.5, 3.0, 3.5, 4.0, 4.5, 5.0, 5.5, 6.0, 6.5) 

sk_dpr_2 <- createTidyFromMatrix(ppr2, tpr2, correlation = "N10")
as.tibble(sk_dpr_2)

# A tibble: 52 x 5
     Tpr   Ppr z.chart    z.calc           dif
   <chr> <dbl>   <dbl>     <dbl>         <dbl>
 1  1.05   0.5   0.829 0.8324799 -0.0034799212
 2   1.1   0.5   0.854 0.8547310 -0.0007310197
 3   1.2   0.5   0.893 0.8953923 -0.0023923156
 4   1.3   0.5   0.916 0.9196115 -0.0036115485
 5  1.05   1.0   0.589 0.5896265 -0.0006265401
 6   1.1   1.0   0.669 0.6708697 -0.0018696755
 7   1.2   1.0   0.779 0.7807145 -0.0017144762
 8   1.3   1.0   0.835 0.8363278 -0.0013277938
 9  1.05   1.5   0.253 0.2526076  0.0003924371
10   1.1   1.5   0.426 0.4309125 -0.0049124610
# ... with 42 more rows
…
# A tibble: 208 x 5
     Tpr   Ppr z.chart    z.calc           dif
   <chr> <dbl>   <dbl>     <dbl>         <dbl>
 1  1.05   0.5   0.829 0.8324799 -0.0034799212
 2   1.1   0.5   0.854 0.8547310 -0.0007310197
 3   1.2   0.5   0.893 0.8953923 -0.0023923156
 4   1.3   0.5   0.916 0.9196115 -0.0036115485
 5   1.4   0.5   0.936 0.9367118 -0.0007118312
 6   1.5   0.5   0.948 0.9508509 -0.0028509478
 7   1.6   0.5   0.959 0.9607316 -0.0017315940
 8   1.7   0.5   0.968 0.9682749 -0.0002748589
 9   1.8   0.5   0.974 0.9758251 -0.0018251256
10   1.9   0.5   0.978 0.9814269 -0.0034269385
# ... with 198 more rows
…
