Dranchuk-AbouKassem correlation
…
# A tibble: 52 x 5
   Tpr     Ppr z.chart z.calc       dif
   <chr> <dbl>   <dbl>  <dbl>     <dbl>
 1 1.05    0.5   0.829  0.830 -0.00107 
 2 1.1     0.5   0.854  0.857 -0.00305 
 3 1.2     0.5   0.893  0.895 -0.00206 
 4 1.3     0.5   0.916  0.920 -0.00430 
 5 1.05    1     0.589  0.587  0.00232 
 6 1.1     1     0.669  0.677 -0.00837 
 7 1.2     1     0.779  0.778  0.000578
 8 1.3     1     0.835  0.837 -0.00221 
 9 1.05    1.5   0.253  0.284 -0.0307  
10 1.1     1.5   0.426  0.446 -0.0204  
# ... with 42 more rows
…
# A tibble: 112 x 5
   Tpr     Ppr z.chart z.calc         dif
   <chr> <dbl>   <dbl>  <dbl>       <dbl>
 1 1.05    0.5   0.829  0.830 -0.00107   
 2 1.1     0.5   0.854  0.857 -0.00305   
 3 1.2     0.5   0.893  0.895 -0.00206   
 4 1.3     0.5   0.916  0.920 -0.00430   
 5 1.4     0.5   0.936  0.938 -0.00201   
 6 1.5     0.5   0.948  0.951 -0.00294   
 7 1.6     0.5   0.959  0.961 -0.00165   
 8 1.7     0.5   0.968  0.968 -0.000135  
 9 1.8     0.5   0.974  0.974 -0.00000593
10 1.9     0.5   0.978  0.979 -0.000688  
# ... with 102 more rows
…
Looking numerically at the errors

Finally, the dataframe with the calculated errors between the z from the correlation and the z read from the chart:

as_tibble(smry_tpr_ppr)

# A tibble: 112 x 9
   Tpr     Ppr    RMSE    MPE   MAPE        MSE        RSS     MAE    RMLSE
   <chr> <dbl>   <dbl>  <dbl>  <dbl>      <dbl>      <dbl>   <dbl>    <dbl>
 1 1.05    0.5 0.00107  0.129  0.129 0.00000114 0.00000114 0.00107 0.000584
 2 1.05    1.5 0.0307  12.1   12.1   0.000944   0.000944   0.0307  0.0242  
 3 1.05    2.5 0.0438  12.8   12.8   0.00192    0.00192    0.0438  0.0321  
 4 1.05    3.5 0.0353   7.49   7.49  0.00125    0.00125    0.0353  0.0237  
 5 1.05    4.5 0.0260   4.34   4.34  0.000675   0.000675   0.0260  0.0161  
 6 1.05    5.5 0.0122   1.68   1.68  0.000149   0.000149   0.0122  0.00705 
 7 1.05    6.5 0.00618  0.730  0.730 0.0000381  0.0000381  0.00618 0.00334 
 8 1.1     0.5 0.00305  0.357  0.357 0.00000927 0.00000927 0.00305 0.00164 
 9 1.1     1.5 0.0204   4.79   4.79  0.000416   0.000416   0.0204  0.0142  
10 1.1     2.5 0.0195   4.97   4.97  0.000381   0.000381   0.0195  0.0139  
# ... with 102 more rows
…
