Hall-Yarborough correlation
…
# A tibble: 52 x 5
   Tpr     Ppr z.chart z.calc       dif
   <chr> <dbl>   <dbl>  <dbl>     <dbl>
 1 1.05    0.5   0.829  0.832 -0.00347 
 2 1.1     0.5   0.854  0.857 -0.00250 
 3 1.2     0.5   0.893  0.892  0.000582
 4 1.3     0.5   0.916  0.918 -0.00163 
 5 1.05    1     0.589  0.602 -0.0134  
 6 1.1     1     0.669  0.682 -0.0126  
 7 1.2     1     0.779  0.776  0.00289 
 8 1.3     1     0.835  0.834  0.00104 
 9 1.05    1.5   0.253  0.310 -0.0569  
10 1.1     1.5   0.426  0.473 -0.0472  
# ... with 42 more rows
…
# A tibble: 112 x 5
   Tpr     Ppr z.chart z.calc        dif
   <chr> <dbl>   <dbl>  <dbl>      <dbl>
 1 1.05    0.5   0.829  0.832 -0.00347  
 2 1.1     0.5   0.854  0.857 -0.00250  
 3 1.2     0.5   0.893  0.892  0.000582 
 4 1.3     0.5   0.916  0.918 -0.00163  
 5 1.4     0.5   0.936  0.936  0.0000227
 6 1.5     0.5   0.948  0.950 -0.00169  
 7 1.6     0.5   0.959  0.960 -0.00114  
 8 1.7     0.5   0.968  0.968 -0.000255 
 9 1.8     0.5   0.974  0.975 -0.000640 
10 1.9     0.5   0.978  0.980 -0.00173  
# ... with 102 more rows
…
Looking numerically at the errors

Finally, the dataframe with the calculated errors between the z from the correlation and the z read from the chart:

as.tibble(smry_tpr_ppr)

# A tibble: 112 x 9
   Tpr     Ppr    RMSE     MPE   MAPE        MSE        RSS     MAE   RMLSE
   <chr> <dbl>   <dbl>   <dbl>  <dbl>      <dbl>      <dbl>   <dbl>   <dbl>
 1 1.05    0.5 0.00347   0.418  0.418 0.0000120  0.0000120  0.00347 0.00189
 2 1.05    1.5 0.0569   22.5   22.5   0.00324    0.00324    0.0569  0.0444 
 3 1.05    2.5 0.0415   12.1   12.1   0.00172    0.00172    0.0415  0.0304 
 4 1.05    3.5 0.0286    6.08   6.08  0.000819   0.000819   0.0286  0.0193 
 5 1.05    4.5 0.0171    2.86   2.86  0.000292   0.000292   0.0171  0.0106 
 6 1.05    5.5 0.00210   0.289  0.289 0.00000442 0.00000442 0.00210 0.00122
 7 1.05    6.5 0.00447  -0.528  0.528 0.0000200  0.0000200  0.00447 0.00242
 8 1.1     0.5 0.00250   0.293  0.293 0.00000627 0.00000627 0.00250 0.00135
 9 1.1     1.5 0.0472   11.1   11.1   0.00223    0.00223    0.0472  0.0326 
10 1.1     2.5 0.0209    5.31   5.31  0.000435   0.000435   0.0209  0.0149 
# ... with 102 more rows
…
