Papay correlation
…
# A tibble: 52 x 5
     Tpr   Ppr z.chart    z.calc           dif
   <chr> <dbl>   <dbl>     <dbl>         <dbl>
 1  1.05   0.5   0.829 0.8243607  0.0046392814
 2   1.1   0.5   0.854 0.8517120  0.0022880049
 3   1.2   0.5   0.893 0.8926577  0.0003422645
 4   1.3   0.5   0.916 0.9208943 -0.0048943216
 5  1.05   1.0   0.589 0.6199052 -0.0309052477
 6   1.1   1.0   0.669 0.6758011 -0.0068010552
 7   1.2   1.0   0.779 0.7629806  0.0160193915
 8   1.3   1.0   0.835 0.8251938  0.0098062071
 9  1.05   1.5   0.253 0.4692711 -0.2162711462
10   1.1   1.5   0.426 0.5361425 -0.1101425496
# ... with 42 more rows
…
# A tibble: 112 x 5
     Tpr   Ppr z.chart    z.calc           dif
   <chr> <dbl>   <dbl>     <dbl>         <dbl>
 1  1.05   0.5   0.829 0.8326386 -0.0036386379
 2   1.1   0.5   0.854 0.8603678 -0.0063677545
 3   1.2   0.5   0.893 0.8952802 -0.0022801812
 4   1.3   0.5   0.916 0.9183713 -0.0023713210
 5   1.4   0.5   0.936 0.9357838  0.0002162375
 6   1.5   0.5   0.948 0.9497469 -0.0017468881
 7   1.6   0.5   0.959 0.9613216 -0.0023215848
 8   1.7   0.5   0.968 0.9711067 -0.0031066681
 9   1.8   0.5   0.974 0.9794808 -0.0054807773
10   1.9   0.5   0.978 0.9867035 -0.0087035343
# ... with 102 more rows
…
They dont look good. Too much error.

Looking numerically at the errors

Finally, the dataframe with the calculated errors between the z from the correlation and the z read from the chart:

as.tibble(smry_tpr_ppr)

# A tibble: 112 x 9
# Groups:   Tpr [?]
     Tpr   Ppr         RMSE        MPE       MAPE          MSE
   <chr> <dbl>        <dbl>      <dbl>      <dbl>        <dbl>
 1  1.05   0.5 0.0036386379  0.4389189  0.4389189 1.323969e-05
 2  1.05   1.5 0.0753475126 29.7816256 29.7816256 5.677248e-03
 3  1.05   2.5 0.0006455823 -0.1882164  0.1882164 4.167765e-07
 4  1.05   3.5 0.0015407202 -0.3271168  0.3271168 2.373819e-06
 5  1.05   4.5 0.0024685586 -0.4128024  0.4128024 6.093781e-06
 6  1.05   5.5 0.0070952254 -0.9759595  0.9759595 5.034222e-05
 7  1.05   6.5 0.0042528000 -0.5026950  0.5026950 1.808631e-05
 8   1.1   0.5 0.0063677545  0.7456387  0.7456387 4.054830e-05
 9   1.1   1.5 0.0609975876 14.3186825 14.3186825 3.720706e-03
10   1.1   2.5 0.0091254368 -2.3219941  2.3219941 8.327360e-05
# ... with 102 more rows, and 3 more variables: RSS <dbl>, MAE <dbl>,
#   RMLSE <dbl>
…
