Papp correlation
…
# A tibble: 52 x 5
   Tpr     Ppr z.chart z.calc       dif
   <chr> <dbl>   <dbl>  <dbl>     <dbl>
 1 1.05    0.5   0.829  0.824  0.00464 
 2 1.1     0.5   0.854  0.852  0.00229 
 3 1.2     0.5   0.893  0.893  0.000342
 4 1.3     0.5   0.916  0.921 -0.00489 
 5 1.05    1     0.589  0.620 -0.0309  
 6 1.1     1     0.669  0.676 -0.00680 
 7 1.2     1     0.779  0.763  0.0160  
 8 1.3     1     0.835  0.825  0.00981 
 9 1.05    1.5   0.253  0.469 -0.216   
10 1.1     1.5   0.426  0.536 -0.110   
# ... with 42 more rows
…
# A tibble: 112 x 5
   Tpr     Ppr z.chart z.calc       dif
   <chr> <dbl>   <dbl>  <dbl>     <dbl>
 1 1.05    0.5   0.829  0.824  0.00464 
 2 1.1     0.5   0.854  0.852  0.00229 
 3 1.2     0.5   0.893  0.893  0.000342
 4 1.3     0.5   0.916  0.921 -0.00489 
 5 1.4     0.5   0.936  0.941 -0.00483 
 6 1.5     0.5   0.948  0.955 -0.00721 
 7 1.6     0.5   0.959  0.966 -0.00678 
 8 1.7     0.5   0.968  0.974 -0.00566 
 9 1.8     0.5   0.974  0.980 -0.00563 
10 1.9     0.5   0.978  0.984 -0.00620 
# ... with 102 more rows
…
With the exception of the isotherms at 1.05 and 1.1, the Papp correlation looks acceptable good.

Looking numerically at the errors

Finally, the dataframe with the calculated errors between the z from the correlation and the z read from the chart:

as_tibble(smry_tpr_ppr)

# A tibble: 112 x 9
   Tpr     Ppr    RMSE     MPE   MAPE        MSE        RSS     MAE   RMLSE
   <chr> <dbl>   <dbl>   <dbl>  <dbl>      <dbl>      <dbl>   <dbl>   <dbl>
 1 1.05    0.5 0.00464  -0.560  0.560 0.0000215  0.0000215  0.00464 0.00254
 2 1.05    1.5 0.216    85.5   85.5   0.0468     0.0468     0.216   0.159  
 3 1.05    2.5 0.0529   15.4   15.4   0.00279    0.00279    0.0529  0.0386 
 4 1.05    3.5 0.00786   1.67   1.67  0.0000617  0.0000617  0.00786 0.00533
 5 1.05    4.5 0.00738  -1.23   1.23  0.0000544  0.0000544  0.00738 0.00463
 6 1.05    5.5 0.0224   -3.08   3.08  0.000501   0.000501   0.0224  0.0130 
 7 1.05    6.5 0.0273   -3.23   3.23  0.000747   0.000747   0.0273  0.0149 
 8 1.1     0.5 0.00229  -0.268  0.268 0.00000523 0.00000523 0.00229 0.00123
 9 1.1     1.5 0.110    25.9   25.9   0.0121     0.0121     0.110   0.0744 
10 1.1     2.5 0.0500   12.7   12.7   0.00250    0.00250    0.0500  0.0353 
# ... with 102 more rows
…
