Plot Standing-Katz low-pressure lp charts
…
The returning object of getStandingKatzCurve is a list of dataframes, which contains a dataframe for each of the Tpr curves specified:

class(result)      # class of the object `result` is a list of dataframes
names(result)      # name of each dataframe within the list

[1] "list"
[1] "1.05" "1.1" 

For Tpr = 1.05:

library(tibble)
as.tibble(result[["1.05"]])

# A tibble: 52 x 5
     Ppr     z isNear Ppr_near       diff
   <dbl> <dbl> <lgl>     <dbl>      <dbl>
 1 0.204 0.937 TRUE       0.2    4.00e- 3
 2 0.3   0.905 TRUE       0.3   -5.55e-17
 3 0.405 0.866 TRUE       0.4    5.00e- 3
 4 0.504 0.829 TRUE       0.5    4.00e- 3
 5 0.602 0.79  TRUE       0.6    2.00e- 3
 6 0.7   0.748 TRUE       0.7   -1.11e-16
 7 1     0.589 TRUE       1      0.      
 8 1.20  0.44  TRUE       1.2    3.00e- 3
 9 1.30  0.35  TRUE       1.3   10.00e- 4
10 1.33  0.319 FALSE      1.33   0.      
# ... with 42 more rows

And, for Tpr = 1.1:

as_tibble(result[["1.1"]])

# A tibble: 86 x 5
     Ppr     z isNear Ppr_near  diff
   <dbl> <dbl> <lgl>     <dbl> <dbl>
 1 0.225 0.942 FALSE     0.225 0    
 2 0.253 0.933 FALSE     0.253 0    
 3 0.279 0.926 FALSE     0.279 0    
 4 0.321 0.912 FALSE     0.321 0    
 5 0.349 0.903 FALSE     0.349 0    
 6 0.378 0.895 FALSE     0.378 0    
 7 0.415 0.882 FALSE     0.415 0    
 8 0.444 0.874 FALSE     0.444 0    
 9 0.456 0.869 FALSE     0.456 0    
10 0.504 0.854 TRUE      0.5   0.004
# ... with 76 more rows
…
library(zFactor)

tpr_vec <- c(1.05, 1.3, 1.5)
all_tpr2 <- getStandingKatzData(tpr_vec)

names(all_tpr2)

[1] "1.05" "1.3"  "1.5" 

Similarly, to what we did with getStandingKatzCurve, we could extract a dataframe for any Tpr:

library(tibble)
as.tibble(all_tpr2[["1.5"]])

# A tibble: 37 x 5
     Ppr     z isNear Ppr_near     diff
   <dbl> <dbl> <lgl>     <dbl>    <dbl>
 1 0.202 0.978 TRUE        0.2 0.002   
 2 0.303 0.967 TRUE        0.3 0.00300 
 3 0.404 0.958 TRUE        0.4 0.004   
 4 0.506 0.948 TRUE        0.5 0.006   
 5 0.701 0.929 TRUE        0.7 0.001000
 6 0.801 0.919 TRUE        0.8 0.001   
 7 1     0.9   TRUE        1   0       
 8 1.30  0.875 TRUE        1.3 0.004   
 9 1.50  0.859 TRUE        1.5 0.00500 
10 1.80  0.836 TRUE        1.8 0.00300 
# ... with 27 more rows
…
By performing a summary of the tidy dataset we can learn a lot more of the data we are plotting:

The number of observations or rows is 117

The Ppr ranges from 0.3 to 8.005

The z values go from 0.937 to 1.097. This is understandle since we are referring to the high side of the Tpr curves.

From all the digitized points, only 1 out of 117 was digitized far from the 1/10 grid.

library(tibble)
as.tibble(hi_tpr_df)

# A tibble: 117 x 6
   Tpr     Ppr     z isNear Ppr_near       diff
   <chr> <dbl> <dbl> <lgl>     <dbl>      <dbl>
 1 2     0.3   0.989 TRUE        0.3  -5.55e-17
 2 2     0.403 0.985 TRUE        0.4   3.00e- 3
 3 2     0.505 0.982 TRUE        0.5   5.00e- 3
 4 2     0.702 0.977 TRUE        0.7   2.00e- 3
 5 2     0.801 0.974 TRUE        0.8   1.00e- 3
 6 2     1.00  0.969 TRUE        1     2.00e- 3
 7 2     1.2   0.963 TRUE        1.2  -2.22e-16
 8 2     1.50  0.956 TRUE        1.5  10.00e- 4
 9 2     1.60  0.954 TRUE        1.6   2.00e- 3
10 2     1.80  0.95  TRUE        1.8   5.00e- 3
# ... with 107 more rows
…
