Shell correlation
…
We can see that the errors in z are considerable with a Min. :-28.070 % and Max. : 0.980 % for Tpr=1.05, and a Min. :-13.060 % and Max. : 2.340 % for Tpr=1.10

Prepare to plot SK chart values vs HY correlation

library(zFactor)
library(tibble)

tpr2 <- c(1.05, 1.1, 1.2, 1.3) 
ppr2 <- c(0.5, 1.0, 1.5, 2, 2.5, 3.0, 3.5, 4.0, 4.5, 5.0, 5.5, 6.0, 6.5) 

sk_corr_2 <- createTidyFromMatrix(ppr2, tpr2, correlation = "SH")
as.tibble(sk_corr_2)

# A tibble: 52 x 5
     Tpr   Ppr z.chart    z.calc           dif
   <chr> <dbl>   <dbl>     <dbl>         <dbl>
 1  1.05   0.5   0.829 0.8294221 -0.0004221265
 2   1.1   0.5   0.854 0.8584285 -0.0044285193
 3   1.2   0.5   0.893 0.8943922 -0.0013922130
 4   1.3   0.5   0.916 0.9178838 -0.0018837657
 5  1.05   1.0   0.589 0.5827255  0.0062744847
 6   1.1   1.0   0.669 0.6787470 -0.0097470141
 7   1.2   1.0   0.779 0.7770740  0.0019259690
 8   1.3   1.0   0.835 0.8310296  0.0039703927
 9  1.05   1.5   0.253 0.3240119 -0.0710119239
10   1.1   1.5   0.426 0.4816432 -0.0556431731
# ... with 42 more rows
…
# A tibble: 112 x 5
     Tpr   Ppr z.chart    z.calc           dif
   <chr> <dbl>   <dbl>     <dbl>         <dbl>
 1  1.05   0.5   0.829 0.8294221 -0.0004221265
 2   1.1   0.5   0.854 0.8584285 -0.0044285193
 3   1.2   0.5   0.893 0.8943922 -0.0013922130
 4   1.3   0.5   0.916 0.9178838 -0.0018837657
 5   1.4   0.5   0.936 0.9354852  0.0005147804
 6   1.5   0.5   0.948 0.9495503 -0.0015502871
 7   1.6   0.5   0.959 0.9611852 -0.0021852045
 8   1.7   0.5   0.968 0.9710083 -0.0030082959
 9   1.8   0.5   0.974 0.9794076 -0.0054076310
10   1.9   0.5   0.978 0.9866478 -0.0086478046
# ... with 102 more rows
…
