Standing-Katz chart data
…
tpr_li <- lapply(tpr, getStandingKatzData, pprRange = 'lp')
names(tpr_li) <- tpr
tibble(tpr_li)

# A tibble: 3 x 1
                 tpr_li
                 <list>
1 <data.frame [52 x 5]>
2 <data.frame [36 x 5]>
3 <data.frame [37 x 5]>

as.tibble(tpr_li[["1.05"]])

# A tibble: 52 x 5
     Ppr     z isNear Ppr_near          diff
 * <dbl> <dbl>  <lgl>    <dbl>         <dbl>
 1 0.204 0.937   TRUE    0.200  4.000000e-03
 2 0.300 0.905   TRUE    0.300 -5.551115e-17
 3 0.405 0.866   TRUE    0.400  5.000000e-03
 4 0.504 0.829   TRUE    0.500  4.000000e-03
 5 0.602 0.790   TRUE    0.600  2.000000e-03
 6 0.700 0.748   TRUE    0.700 -1.110223e-16
 7 1.000 0.589   TRUE    1.000  0.000000e+00
 8 1.203 0.440   TRUE    1.200  3.000000e-03
 9 1.301 0.350   TRUE    1.300  1.000000e-03
10 1.332 0.319  FALSE    1.332  0.000000e+00
# ... with 42 more rows

as.tibble(tpr_li[["1.3"]])

# A tibble: 36 x 5
     Ppr     z isNear Ppr_near          diff
 * <dbl> <dbl>  <lgl>    <dbl>         <dbl>
 1 0.201 0.967   TRUE      0.2  1.000000e-03
 2 0.302 0.950   TRUE      0.3  2.000000e-03
 3 0.401 0.935   TRUE      0.4  1.000000e-03
 4 0.504 0.916   TRUE      0.5  4.000000e-03
 5 0.600 0.901   TRUE      0.6 -1.110223e-16
 6 0.804 0.868   TRUE      0.8  4.000000e-03
 7 1.002 0.835   TRUE      1.0  2.000000e-03
 8 1.202 0.804   TRUE      1.2  2.000000e-03
 9 1.303 0.788   TRUE      1.3  3.000000e-03
10 1.503 0.756   TRUE      1.5  3.000000e-03
# ... with 26 more rows

as.tibble(tpr_li[["1.5"]])

# A tibble: 37 x 5
     Ppr     z isNear Ppr_near  diff
 * <dbl> <dbl>  <lgl>    <dbl> <dbl>
 1 0.202 0.978   TRUE      0.2 0.002
 2 0.303 0.967   TRUE      0.3 0.003
 3 0.404 0.958   TRUE      0.4 0.004
 4 0.506 0.948   TRUE      0.5 0.006
 5 0.701 0.929   TRUE      0.7 0.001
 6 0.801 0.919   TRUE      0.8 0.001
 7 1.000 0.900   TRUE      1.0 0.000
 8 1.304 0.875   TRUE      1.3 0.004
 9 1.505 0.859   TRUE      1.5 0.005
10 1.803 0.836   TRUE      1.8 0.003
# ... with 27 more rows
…
