Calculate the Compressibility Factor 'z' for Hydrocarbon Gases • zFactor
…
smry_tpr_ppr <- summarise(grouped, 
          RMSE  = sqrt(mean((z.chart-z.calc)^2)), 
          MPE   = sum((z.calc - z.chart) / z.chart) * 100 / n(),
          MAPE  = sum(abs((z.calc - z.chart) / z.chart)) * 100 / n(), 
          MSE   = sum((z.calc - z.chart)^2) / n(), 
          RSS   = sum((z.calc - z.chart)^2),
          MAE   = sum(abs(z.calc - z.chart)) / n(),
          RMLSE = sqrt(1/n()*sum((log(z.calc +1)-log(z.chart +1))^2))
          )
as.tibble(smry_tpr_ppr)
#> # A tibble: 112 x 9
#>    Tpr     Ppr     RMSE    MPE   MAPE        MSE        RSS     MAE   RMLSE
#>    <chr> <dbl>    <dbl>  <dbl>  <dbl>      <dbl>      <dbl>   <dbl>   <dbl>
#>  1 1.05    0.5 0.000976  0.118  0.118    9.52e-7    9.52e-7 9.76e-4 5.33e-4
#>  2 1.05    1.5 0.0320   12.6   12.6      1.02e-3    1.02e-3 3.20e-2 2.52e-2
#>  3 1.05    2.5 0.0445   13.0   13.0      1.98e-3    1.98e-3 4.45e-2 3.26e-2
#>  4 1.05    3.5 0.0361    7.67   7.67     1.31e-3    1.31e-3 3.61e-2 2.43e-2
#>  5 1.05    4.5 0.0271    4.54   4.54     7.36e-4    7.36e-4 2.71e-2 1.68e-2
#>  6 1.05    5.5 0.0137    1.89   1.89     1.88e-4    1.88e-4 1.37e-2 7.92e-3
#>  7 1.05    6.5 0.00809   0.957  0.957    6.55e-5    6.55e-5 8.09e-3 4.38e-3
#>  8 1.1     0.5 0.00264   0.309  0.309    6.95e-6    6.95e-6 2.64e-3 1.42e-3
#>  9 1.1     1.5 0.0169    3.98   3.98     2.87e-4    2.87e-4 1.69e-2 1.18e-2
#> 10 1.1     2.5 0.0191    4.85   4.85     3.63e-4    3.63e-4 1.91e-2 1.36e-2
#> # … with 102 more rows
…
