Artificial Neural Network correlation • zFactor
…
# A tibble: 52 x 5
     Tpr   Ppr z.chart    z.calc           dif
   <chr> <dbl>   <dbl>     <dbl>         <dbl>
 1  1.05   0.5   0.829 0.8324799 -0.0034799212
 2   1.1   0.5   0.854 0.8547310 -0.0007310197
 3   1.2   0.5   0.893 0.8953923 -0.0023923156
 4   1.3   0.5   0.916 0.9196115 -0.0036115485
 5  1.05   1.0   0.589 0.5896265 -0.0006265401
 6   1.1   1.0   0.669 0.6708697 -0.0018696755
 7   1.2   1.0   0.779 0.7807145 -0.0017144762
 8   1.3   1.0   0.835 0.8363278 -0.0013277938
 9  1.05   1.5   0.253 0.2526076  0.0003924371
10   1.1   1.5   0.426 0.4309125 -0.0049124610
# ... with 42 more rows
…
# A tibble: 112 x 5
     Tpr   Ppr z.chart    z.calc           dif
   <chr> <dbl>   <dbl>     <dbl>         <dbl>
 1  1.05   0.5   0.829 0.8324799 -0.0034799212
 2   1.1   0.5   0.854 0.8547310 -0.0007310197
 3   1.2   0.5   0.893 0.8953923 -0.0023923156
 4   1.3   0.5   0.916 0.9196115 -0.0036115485
 5   1.4   0.5   0.936 0.9367118 -0.0007118312
 6   1.5   0.5   0.948 0.9508509 -0.0028509478
 7   1.6   0.5   0.959 0.9607316 -0.0017315940
 8   1.7   0.5   0.968 0.9682749 -0.0002748589
 9   1.8   0.5   0.974 0.9758251 -0.0018251256
10   1.9   0.5   0.978 0.9814269 -0.0034269385
# ... with 102 more rows
…
Looking numerically at the errors

Finally, the dataframe with the calculated errors between the z from the correlation and the z read from the chart:

as.tibble(smry_tpr_ppr)

# A tibble: 112 x 9
# Groups:   Tpr [?]
     Tpr   Ppr         RMSE         MPE       MAPE          MSE
   <chr> <dbl>        <dbl>       <dbl>      <dbl>        <dbl>
 1  1.05   0.5 3.479921e-03  0.41977337 0.41977337 1.210985e-05
 2  1.05   1.5 3.924371e-04 -0.15511348 0.15511348 1.540069e-07
 3  1.05   2.5 9.678343e-04 -0.28216745 0.28216745 9.367033e-07
 4  1.05   3.5 1.648047e-03 -0.34990374 0.34990374 2.716058e-06
 5  1.05   4.5 1.187447e-03  0.19856970 0.19856970 1.410030e-06
 6  1.05   5.5 1.552984e-03 -0.21361546 0.21361546 2.411761e-06
 7  1.05   6.5 4.481081e-04  0.05296786 0.05296786 2.008009e-07
 8   1.1   0.5 7.310197e-04  0.08559949 0.08559949 5.343898e-07
 9   1.1   1.5 4.912461e-03  1.15315985 1.15315985 2.413227e-05
10   1.1   2.5 4.200577e-05  0.01068849 0.01068849 1.764485e-09
# ... with 102 more rows, and 3 more variables: RSS <dbl>, MAE <dbl>,
#   RMLSE <dbl>
…
