Beggs-Brill correlation • zFactor
…
We can see that the errors in z with DAK are less than HY with a Min. :-12.7100 % and Max. : 3.2500 % for Tpr = 1.05, and a Min. :-8.720 %% and Max. : 2.070 %% for Tpr = 1.10.

Prepare to plot SK chart vs BB correlation

library(zFactor)
library(tibble)

tpr2 <- c(1.05, 1.1, 1.2, 1.3) 
ppr2 <- c(0.5, 1.0, 1.5, 2, 2.5, 3.0, 3.5, 4.0, 4.5, 5.0, 5.5, 6.0, 6.5) 

sk_corr_2 <- createTidyFromMatrix(ppr2, tpr2, correlation = "BB")
as_tibble(sk_corr_2)

# A tibble: 52 x 5
   Tpr     Ppr z.chart z.calc      dif
   <chr> <dbl>   <dbl>  <dbl>    <dbl>
 1 1.05    0.5   0.829  0.833 -0.00355
 2 1.1     0.5   0.854  0.864 -0.00993
 3 1.2     0.5   0.893  0.903 -0.00965
 4 1.3     0.5   0.916  0.927 -0.0106 
 5 1.05    1     0.589  0.586  0.00330
 6 1.1     1     0.669  0.687 -0.0184 
 7 1.2     1     0.779  0.790 -0.0109 
 8 1.3     1     0.835  0.845 -0.00951
 9 1.05    1.5   0.253  0.285 -0.0321 
10 1.1     1.5   0.426  0.463 -0.0372 
# … with 42 more rows
…
# A tibble: 112 x 5
   Tpr     Ppr z.chart z.calc      dif
   <chr> <dbl>   <dbl>  <dbl>    <dbl>
 1 1.05    0.5   0.829  0.833 -0.00355
 2 1.1     0.5   0.854  0.864 -0.00993
 3 1.2     0.5   0.893  0.903 -0.00965
 4 1.3     0.5   0.916  0.927 -0.0106 
 5 1.4     0.5   0.936  0.943 -0.00730
 6 1.5     0.5   0.948  0.956 -0.00752
 7 1.6     0.5   0.959  0.965 -0.00578
 8 1.7     0.5   0.968  0.972 -0.00392
 9 1.8     0.5   0.974  0.977 -0.00349
10 1.9     0.5   0.978  0.982 -0.00386
# … with 102 more rows
…
