Dranchuk-AbouKassem correlation • zFactor
…
# A tibble: 52 x 5
     Tpr   Ppr z.chart    z.calc           dif
   <chr> <dbl>   <dbl>     <dbl>         <dbl>
 1  1.05   0.5   0.829 0.8300683 -0.0010683396
 2   1.1   0.5   0.854 0.8570452 -0.0030452477
 3   1.2   0.5   0.893 0.8950631 -0.0020631238
 4   1.3   0.5   0.916 0.9203019 -0.0043019067
 5  1.05   1.0   0.589 0.5866751  0.0023248611
 6   1.1   1.0   0.669 0.6773731 -0.0083730721
 7   1.2   1.0   0.779 0.7784223  0.0005777158
 8   1.3   1.0   0.835 0.8372105 -0.0022105338
 9  1.05   1.5   0.253 0.2837318 -0.0307317809
10   1.1   1.5   0.426 0.4463987 -0.0203986679
# ... with 42 more rows
…
# A tibble: 112 x 5
     Tpr   Ppr z.chart    z.calc           dif
   <chr> <dbl>   <dbl>     <dbl>         <dbl>
 1  1.05   0.5   0.829 0.8300683 -1.068340e-03
 2   1.1   0.5   0.854 0.8570452 -3.045248e-03
 3   1.2   0.5   0.893 0.8950631 -2.063124e-03
 4   1.3   0.5   0.916 0.9203019 -4.301907e-03
 5   1.4   0.5   0.936 0.9380124 -2.012440e-03
 6   1.5   0.5   0.948 0.9509373 -2.937323e-03
 7   1.6   0.5   0.959 0.9606548 -1.654767e-03
 8   1.7   0.5   0.968 0.9681353 -1.352833e-04
 9   1.8   0.5   0.974 0.9740059 -5.934455e-06
10   1.9   0.5   0.978 0.9786879 -6.879009e-04
# ... with 102 more rows
…
Looking numerically at the errors

Finally, the dataframe with the calculated errors between the z from the correlation and the z read from the chart:

as.tibble(smry_tpr_ppr)

# A tibble: 112 x 9
# Groups:   Tpr [?]
     Tpr   Ppr        RMSE        MPE       MAPE          MSE          RSS
   <chr> <dbl>       <dbl>      <dbl>      <dbl>        <dbl>        <dbl>
 1  1.05   0.5 0.001068340  0.1288709  0.1288709 1.141349e-06 1.141349e-06
 2  1.05   1.5 0.030731781 12.1469490 12.1469490 9.444424e-04 9.444424e-04
 3  1.05   2.5 0.043828227 12.7779088 12.7779088 1.920913e-03 1.920913e-03
 4  1.05   3.5 0.035300493  7.4947969  7.4947969 1.246125e-03 1.246125e-03
 5  1.05   4.5 0.025978253  4.3441895  4.3441895 6.748697e-04 6.748697e-04
 6  1.05   5.5 0.012209748  1.6794701  1.6794701 1.490779e-04 1.490779e-04
 7  1.05   6.5 0.006176173  0.7300441  0.7300441 3.814511e-05 3.814511e-05
 8   1.1   0.5 0.003045248  0.3565864  0.3565864 9.273534e-06 9.273534e-06
 9   1.1   1.5 0.020398668  4.7884197  4.7884197 4.161057e-04 4.161057e-04
10   1.1   2.5 0.019519996  4.9669201  4.9669201 3.810302e-04 3.810302e-04
# ... with 102 more rows, and 2 more variables: MAE <dbl>, RMLSE <dbl>
…
