Dranchuk-Purvis-Robinson correlation • zFactor
…
# A tibble: 52 x 5
     Tpr   Ppr z.chart    z.calc           dif
   <chr> <dbl>   <dbl>     <dbl>         <dbl>
 1  1.05   0.5   0.829 0.8299757 -0.0009756528
 2   1.1   0.5   0.854 0.8566368 -0.0026367700
 3   1.2   0.5   0.893 0.8944622 -0.0014621939
 4   1.3   0.5   0.916 0.9197157 -0.0037156673
 5  1.05   1.0   0.589 0.5856680  0.0033320375
 6   1.1   1.0   0.669 0.6758858 -0.0068857625
 7   1.2   1.0   0.779 0.7769542  0.0020457628
 8   1.3   1.0   0.835 0.8359886 -0.0009885692
 9  1.05   1.5   0.253 0.2849670 -0.0319670358
10   1.1   1.5   0.426 0.4429389 -0.0169389191
# ... with 42 more rows
…
# A tibble: 112 x 5
     Tpr   Ppr z.chart    z.calc           dif
   <chr> <dbl>   <dbl>     <dbl>         <dbl>
 1  1.05   0.5   0.829 0.8299757 -0.0009756528
 2   1.1   0.5   0.854 0.8566368 -0.0026367700
 3   1.2   0.5   0.893 0.8944622 -0.0014621939
 4   1.3   0.5   0.916 0.9197157 -0.0037156673
 5   1.4   0.5   0.936 0.9374909 -0.0014908703
 6   1.5   0.5   0.948 0.9504834 -0.0024834262
 7   1.6   0.5   0.959 0.9602585 -0.0012584586
 8   1.7   0.5   0.968 0.9677844  0.0002155860
 9   1.8   0.5   0.974 0.9736897  0.0003103086
10   1.9   0.5   0.978 0.9783976 -0.0003975858
# ... with 102 more rows
…
Looking numerically at the errors

Finally, the dataframe with the calculated errors between the z from the correlation and the z read from the chart:

as.tibble(smry_tpr_ppr)

# A tibble: 112 x 9
# Groups:   Tpr [?]
     Tpr   Ppr         RMSE        MPE       MAPE          MSE
   <chr> <dbl>        <dbl>      <dbl>      <dbl>        <dbl>
 1  1.05   0.5 0.0009756528  0.1176903  0.1176903 9.518984e-07
 2  1.05   1.5 0.0319670358 12.6351920 12.6351920 1.021891e-03
 3  1.05   2.5 0.0444731970 12.9659466 12.9659466 1.977865e-03
 4  1.05   3.5 0.0361451067  7.6741203  7.6741203 1.306469e-03
 5  1.05   4.5 0.0271306123  4.5368917  4.5368917 7.360701e-04
 6  1.05   5.5 0.0137256422  1.8879838  1.8879838 1.883933e-04
 7  1.05   6.5 0.0080944856  0.9567950  0.9567950 6.552070e-05
 8   1.1   0.5 0.0026367700  0.3087553  0.3087553 6.952556e-06
 9   1.1   1.5 0.0169389191  3.9762721  3.9762721 2.869270e-04
10   1.1   2.5 0.0190546763  4.8485181  4.8485181 3.630807e-04
# ... with 102 more rows, and 3 more variables: RSS <dbl>, MAE <dbl>,
#   RMLSE <dbl>
…
