Hall-Yarborough correlation • zFactor
…
# A tibble: 52 x 5
     Tpr   Ppr z.chart    z.calc          dif
   <chr> <dbl>   <dbl>     <dbl>        <dbl>
 1  1.05   0.5   0.829 0.8324659 -0.003465859
 2   1.1   0.5   0.854 0.8565046 -0.002504586
 3   1.2   0.5   0.893 0.8924176  0.000582438
 4   1.3   0.5   0.916 0.9176300 -0.001630042
 5  1.05   1.0   0.589 0.6023739 -0.013373916
 6   1.1   1.0   0.669 0.6816110 -0.012611042
 7   1.2   1.0   0.779 0.7761052  0.002894780
 8   1.3   1.0   0.835 0.8339593  0.001040688
 9  1.05   1.5   0.253 0.3098781 -0.056878063
10   1.1   1.5   0.426 0.4732393 -0.047239269
# ... with 42 more rows
…
# A tibble: 112 x 5
     Tpr   Ppr z.chart    z.calc           dif
   <chr> <dbl>   <dbl>     <dbl>         <dbl>
 1  1.05   0.5   0.829 0.8324659 -3.465859e-03
 2   1.1   0.5   0.854 0.8565046 -2.504586e-03
 3   1.2   0.5   0.893 0.8924176  5.824380e-04
 4   1.3   0.5   0.916 0.9176300 -1.630042e-03
 5   1.4   0.5   0.936 0.9359773  2.267004e-05
 6   1.5   0.5   0.948 0.9496855 -1.685473e-03
 7   1.6   0.5   0.959 0.9601420 -1.141963e-03
 8   1.7   0.5   0.968 0.9682547 -2.547035e-04
 9   1.8   0.5   0.974 0.9746397 -6.396615e-04
10   1.9   0.5   0.978 0.9797268 -1.726818e-03
# ... with 102 more rows
…
Looking numerically at the errors

Finally, the dataframe with the calculated errors between the z from the correlation and the z read from the chart:

as.tibble(smry_tpr_ppr)

# A tibble: 112 x 9
# Groups:   Tpr [?]
     Tpr   Ppr        RMSE        MPE       MAPE          MSE          RSS
   <chr> <dbl>       <dbl>      <dbl>      <dbl>        <dbl>        <dbl>
 1  1.05   0.5 0.003465859  0.4180770  0.4180770 1.201218e-05 1.201218e-05
 2  1.05   1.5 0.056878063 22.4814480 22.4814480 3.235114e-03 3.235114e-03
 3  1.05   2.5 0.041470998 12.0906699 12.0906699 1.719844e-03 1.719844e-03
 4  1.05   3.5 0.028618834  6.0761856  6.0761856 8.190377e-04 8.190377e-04
 5  1.05   4.5 0.017088211  2.8575603  2.8575603 2.920070e-04 2.920070e-04
 6  1.05   5.5 0.002101924  0.2891229  0.2891229 4.418084e-06 4.418084e-06
 7  1.05   6.5 0.004470634 -0.5284438  0.5284438 1.998657e-05 1.998657e-05
 8   1.1   0.5 0.002504586  0.2932771  0.2932771 6.272952e-06 6.272952e-06
 9   1.1   1.5 0.047239269 11.0890303 11.0890303 2.231549e-03 2.231549e-03
10   1.1   2.5 0.020851328  5.3056814  5.3056814 4.347779e-04 4.347779e-04
# ... with 102 more rows, and 2 more variables: MAE <dbl>, RMLSE <dbl>
…
