Standing-Katz chart data • zFactor
…
tpr <- c(1.05, 1.3, 1.5)
tpr_li <- lapply(tpr, getStandingKatzData, pprRange = 'lp')
names(tpr_li) <- tpr
tibble(tpr_li)

# A tibble: 3 x 1
  tpr_li           
  <named list>     
1 <df[,5] [52 × 5]>
2 <df[,5] [36 × 5]>
3 <df[,5] [37 × 5]>

as_tibble(tpr_li[["1.05"]])

# A tibble: 52 x 5
     Ppr     z isNear Ppr_near      diff
   <dbl> <dbl> <lgl>     <dbl>     <dbl>
 1 0.204 0.937 TRUE       0.2   4.00e- 3
 2 0.3   0.905 TRUE       0.3  -5.55e-17
 3 0.405 0.866 TRUE       0.4   5.00e- 3
 4 0.504 0.829 TRUE       0.5   4.00e- 3
 5 0.602 0.79  TRUE       0.6   2.00e- 3
 6 0.7   0.748 TRUE       0.7  -1.11e-16
 7 1     0.589 TRUE       1     0.      
 8 1.20  0.44  TRUE       1.2   3.00e- 3
 9 1.30  0.35  TRUE       1.3  10.00e- 4
10 1.33  0.319 FALSE      1.33  0.      
# … with 42 more rows

as_tibble(tpr_li[["1.3"]])

# A tibble: 36 x 5
     Ppr     z isNear Ppr_near      diff
   <dbl> <dbl> <lgl>     <dbl>     <dbl>
 1 0.201 0.967 TRUE        0.2  1.00e- 3
 2 0.302 0.95  TRUE        0.3  2.00e- 3
 3 0.401 0.935 TRUE        0.4  1.00e- 3
 4 0.504 0.916 TRUE        0.5  4.00e- 3
 5 0.6   0.901 TRUE        0.6 -1.11e-16
 6 0.804 0.868 TRUE        0.8  4.00e- 3
 7 1.00  0.835 TRUE        1    2.00e- 3
 8 1.20  0.804 TRUE        1.2  2.00e- 3
 9 1.30  0.788 TRUE        1.3  3.00e- 3
10 1.50  0.756 TRUE        1.5  3.00e- 3
# … with 26 more rows

as_tibble(tpr_li[["1.5"]])

# A tibble: 37 x 5
     Ppr     z isNear Ppr_near     diff
   <dbl> <dbl> <lgl>     <dbl>    <dbl>
 1 0.202 0.978 TRUE        0.2 0.002   
 2 0.303 0.967 TRUE        0.3 0.00300 
 3 0.404 0.958 TRUE        0.4 0.004   
 4 0.506 0.948 TRUE        0.5 0.006   
 5 0.701 0.929 TRUE        0.7 0.001000
 6 0.801 0.919 TRUE        0.8 0.001   
 7 1     0.9   TRUE        1   0       
 8 1.30  0.875 TRUE        1.3 0.004   
 9 1.50  0.859 TRUE        1.5 0.00500 
10 1.80  0.836 TRUE        1.8 0.00300 
# … with 27 more rows
…
