Measuring the error in calculating z • zFactor
…
sum_tpr <- as_tibble(z.stats("HY"))
sum_tpr

## # A tibble: 112 x 11
##    Tpr     Ppr z.chart z.calc    RMSE     MPE   MAPE     MSE     RSS
##    <chr> <dbl>   <dbl>  <dbl>   <dbl>   <dbl>  <dbl>   <dbl>   <dbl>
##  1 1.05    0.5   0.829  0.832 0.00347  -0.418  0.418 1.20e-5 1.20e-5
##  2 1.05    1.5   0.253  0.310 0.0569  -22.5   22.5   3.24e-3 3.24e-3
##  3 1.05    2.5   0.343  0.384 0.0415  -12.1   12.1   1.72e-3 1.72e-3
##  4 1.05    3.5   0.471  0.500 0.0286   -6.08   6.08  8.19e-4 8.19e-4
##  5 1.05    4.5   0.598  0.615 0.0171   -2.86   2.86  2.92e-4 2.92e-4
##  6 1.05    5.5   0.727  0.729 0.00210  -0.289  0.289 4.42e-6 4.42e-6
##  7 1.05    6.5   0.846  0.842 0.00447   0.528  0.528 2.00e-5 2.00e-5
##  8 1.1     0.5   0.854  0.857 0.00250  -0.293  0.293 6.27e-6 6.27e-6
##  9 1.1     1.5   0.426  0.473 0.0472  -11.1   11.1   2.23e-3 2.23e-3
## 10 1.1     2.5   0.393  0.414 0.0209   -5.31   5.31  4.35e-4 4.35e-4
## # … with 102 more rows, and 2 more variables: MAE <dbl>, MAAPE <dbl>
…
