Beggs-Brill correlation • zFactor
…
We can see that the errors in z with DAK are less than HY with a Min. :-12.7100 % and Max. : 3.2500 % for Tpr = 1.05, and a Min. :-8.720 % and Max. : 2.070 % for Tpr = 1.10.

Prepare to plot SK chart vs BB correlation

library(zFactor)
library(tibble)

tpr2 <- c(1.05, 1.1, 1.2, 1.3) 
ppr2 <- c(0.5, 1.0, 1.5, 2, 2.5, 3.0, 3.5, 4.0, 4.5, 5.0, 5.5, 6.0, 6.5) 

sk_corr_2 <- createTidyFromMatrix(ppr2, tpr2, correlation = "BB")
as.tibble(sk_corr_2)

# A tibble: 52 x 5
     Tpr   Ppr z.chart    z.calc          dif
   <chr> <dbl>   <dbl>     <dbl>        <dbl>
 1  1.05   0.5   0.829 0.8325491 -0.003549064
 2   1.1   0.5   0.854 0.8639321 -0.009932126
 3   1.2   0.5   0.893 0.9026461 -0.009646136
 4   1.3   0.5   0.916 0.9266436 -0.010643559
 5  1.05   1.0   0.589 0.5857006  0.003299370
 6   1.1   1.0   0.669 0.6873576 -0.018357590
 7   1.2   1.0   0.779 0.7898931 -0.010893124
 8   1.3   1.0   0.835 0.8445056 -0.009505581
 9  1.05   1.5   0.253 0.2851494 -0.032149397
10   1.1   1.5   0.426 0.4631501 -0.037150091
# ... with 42 more rows
…
# A tibble: 112 x 5
     Tpr   Ppr z.chart    z.calc          dif
   <chr> <dbl>   <dbl>     <dbl>        <dbl>
 1  1.05   0.5   0.829 0.8325491 -0.003549064
 2   1.1   0.5   0.854 0.8639321 -0.009932126
 3   1.2   0.5   0.893 0.9026461 -0.009646136
 4   1.3   0.5   0.916 0.9266436 -0.010643559
 5   1.4   0.5   0.936 0.9432988 -0.007298768
 6   1.5   0.5   0.948 0.9555248 -0.007524787
 7   1.6   0.5   0.959 0.9647818 -0.005781769
 8   1.7   0.5   0.968 0.9719193 -0.003919260
 9   1.8   0.5   0.974 0.9774854 -0.003485374
10   1.9   0.5   0.978 0.9818623 -0.003862346
# ... with 102 more rows
…
