Selecting the Best Correlation • zFactor
…
      Selecting the Best Correlation

            2017-10-25

If after seeing the heatmaps that show the best and worst areas of applicability of any of the correlation does not convince you, I am showing a diiferent way of visualizing the correlations.

This time I am using all the statistical variables from the table generated by z.stats for the Hall-Yarborough correlation:

library(zFactor)
library(tibble)

as.tibble(z.stats("HY"))

## # A tibble: 112 x 11
## # Groups:   Tpr [?]
##      Tpr   Ppr z.chart    z.calc        RMSE         MPE       MAPE
##    <chr> <dbl>   <dbl>     <dbl>       <dbl>       <dbl>      <dbl>
##  1  1.05   0.5   0.829 0.8324659 0.003465859  -0.4180770  0.4180770
##  2  1.05   1.5   0.253 0.3098781 0.056878063 -22.4814480 22.4814480
##  3  1.05   2.5   0.343 0.3844710 0.041470998 -12.0906699 12.0906699
##  4  1.05   3.5   0.471 0.4996188 0.028618834  -6.0761856  6.0761856
##  5  1.05   4.5   0.598 0.6150882 0.017088211  -2.8575603  2.8575603
##  6  1.05   5.5   0.727 0.7291019 0.002101924  -0.2891229  0.2891229
##  7  1.05   6.5   0.846 0.8415294 0.004470634   0.5284438  0.5284438
##  8   1.1   0.5   0.854 0.8565046 0.002504586  -0.2932771  0.2932771
##  9   1.1   1.5   0.426 0.4732393 0.047239269 -11.0890303 11.0890303
## 10   1.1   2.5   0.393 0.4138513 0.020851328  -5.3056814  5.3056814
## # ... with 102 more rows, and 4 more variables: MSE <dbl>, RSS <dbl>,
## #   MAE <dbl>, MAAPE <dbl>
…
