Papp correlation • zFactor
…
# A tibble: 52 x 5
     Tpr   Ppr z.chart    z.calc           dif
   <chr> <dbl>   <dbl>     <dbl>         <dbl>
 1  1.05   0.5   0.829 0.8243607  0.0046392814
 2   1.1   0.5   0.854 0.8517120  0.0022880049
 3   1.2   0.5   0.893 0.8926577  0.0003422645
 4   1.3   0.5   0.916 0.9208943 -0.0048943216
 5  1.05   1.0   0.589 0.6199052 -0.0309052477
 6   1.1   1.0   0.669 0.6758011 -0.0068010552
 7   1.2   1.0   0.779 0.7629806  0.0160193915
 8   1.3   1.0   0.835 0.8251938  0.0098062071
 9  1.05   1.5   0.253 0.4692711 -0.2162711462
10   1.1   1.5   0.426 0.5361425 -0.1101425496
# ... with 42 more rows
…
# A tibble: 112 x 5
     Tpr   Ppr z.chart    z.calc           dif
   <chr> <dbl>   <dbl>     <dbl>         <dbl>
 1  1.05   0.5   0.829 0.8243607  0.0046392814
 2   1.1   0.5   0.854 0.8517120  0.0022880049
 3   1.2   0.5   0.893 0.8926577  0.0003422645
 4   1.3   0.5   0.916 0.9208943 -0.0048943216
 5   1.4   0.5   0.936 0.9408336 -0.0048335907
 6   1.5   0.5   0.948 0.9552137 -0.0072136788
 7   1.6   0.5   0.959 0.9657774 -0.0067773900
 8   1.7   0.5   0.968 0.9736623 -0.0056622515
 9   1.8   0.5   0.974 0.9796287 -0.0056286532
10   1.9   0.5   0.978 0.9841963 -0.0061962511
# ... with 102 more rows
…
With the exception of the isotherms at 1.05 and 1.1, the Papp correlation looks acceptable good.

Looking numerically at the errors

Finally, the dataframe with the calculated errors between the z from the correlation and the z read from the chart:

as.tibble(smry_tpr_ppr)

# A tibble: 112 x 9
# Groups:   Tpr [?]
     Tpr   Ppr        RMSE        MPE       MAPE          MSE          RSS
   <chr> <dbl>       <dbl>      <dbl>      <dbl>        <dbl>        <dbl>
 1  1.05   0.5 0.004639281 -0.5596238  0.5596238 2.152293e-05 2.152293e-05
 2  1.05   1.5 0.216271146 85.4826665 85.4826665 4.677321e-02 4.677321e-02
 3  1.05   2.5 0.052863219 15.4120172 15.4120172 2.794520e-03 2.794520e-03
 4  1.05   3.5 0.007855318  1.6677957  1.6677957 6.170602e-05 6.170602e-05
 5  1.05   4.5 0.007376377 -1.2335079  1.2335079 5.441094e-05 5.441094e-05
 6  1.05   5.5 0.022390052 -3.0797870  3.0797870 5.013144e-04 5.013144e-04
 7  1.05   6.5 0.027328416 -3.2303092  3.2303092 7.468423e-04 7.468423e-04
 8   1.1   0.5 0.002288005 -0.2679163  0.2679163 5.234967e-06 5.234967e-06
 9   1.1   1.5 0.110142550 25.8550586 25.8550586 1.213138e-02 1.213138e-02
10   1.1   2.5 0.050033229 12.7311015 12.7311015 2.503324e-03 2.503324e-03
# ... with 102 more rows, and 2 more variables: MAE <dbl>, RMLSE <dbl>
…
