Shell correlation • zFactor
…
# A tibble: 52 x 5
   Tpr     Ppr z.chart z.calc       dif
   <chr> <dbl>   <dbl>  <dbl>     <dbl>
 1 1.05    0.5   0.829  0.833 -0.00364 
 2 1.1     0.5   0.854  0.860 -0.00637 
 3 1.2     0.5   0.893  0.895 -0.00228 
 4 1.3     0.5   0.916  0.918 -0.00237 
 5 1.05    1     0.589  0.590 -0.00126 
 6 1.1     1     0.669  0.684 -0.0149  
 7 1.2     1     0.779  0.780 -0.000710
 8 1.3     1     0.835  0.833  0.00245 
 9 1.05    1.5   0.253  0.328 -0.0753  
10 1.1     1.5   0.426  0.487 -0.0610  
# … with 42 more rows
…
# A tibble: 112 x 5
   Tpr     Ppr z.chart z.calc       dif
   <chr> <dbl>   <dbl>  <dbl>     <dbl>
 1 1.05    0.5   0.829  0.833 -0.00364 
 2 1.1     0.5   0.854  0.860 -0.00637 
 3 1.2     0.5   0.893  0.895 -0.00228 
 4 1.3     0.5   0.916  0.918 -0.00237 
 5 1.4     0.5   0.936  0.936  0.000216
 6 1.5     0.5   0.948  0.950 -0.00175 
 7 1.6     0.5   0.959  0.961 -0.00232 
 8 1.7     0.5   0.968  0.971 -0.00311 
 9 1.8     0.5   0.974  0.979 -0.00548 
10 1.9     0.5   0.978  0.987 -0.00870 
# … with 102 more rows
…
They don’t look good. Too much error.

Looking numerically at the errors

Finally, the dataframe with the calculated errors between the z from the correlation and the z read from the chart:

as_tibble(smry_tpr_ppr)

# A tibble: 112 x 9
   Tpr     Ppr     RMSE    MPE   MAPE        MSE        RSS     MAE   RMLSE
   <chr> <dbl>    <dbl>  <dbl>  <dbl>      <dbl>      <dbl>   <dbl>   <dbl>
 1 1.05    0.5 0.00364   0.439  0.439    1.32e-5    1.32e-5 3.64e-3 1.99e-3
 2 1.05    1.5 0.0753   29.8   29.8      5.68e-3    5.68e-3 7.53e-2 5.84e-2
 3 1.05    2.5 0.000646 -0.188  0.188    4.17e-7    4.17e-7 6.46e-4 4.81e-4
 4 1.05    3.5 0.00154  -0.327  0.327    2.37e-6    2.37e-6 1.54e-3 1.05e-3
 5 1.05    4.5 0.00247  -0.413  0.413    6.09e-6    6.09e-6 2.47e-3 1.55e-3
 6 1.05    5.5 0.00710  -0.976  0.976    5.03e-5    5.03e-5 7.10e-3 4.12e-3
 7 1.05    6.5 0.00425  -0.503  0.503    1.81e-5    1.81e-5 4.25e-3 2.31e-3
 8 1.1     0.5 0.00637   0.746  0.746    4.05e-5    4.05e-5 6.37e-3 3.43e-3
 9 1.1     1.5 0.0610   14.3   14.3      3.72e-3    3.72e-3 6.10e-2 4.19e-2
10 1.1     2.5 0.00913  -2.32   2.32     8.33e-5    8.33e-5 9.13e-3 6.57e-3
# … with 102 more rows
…
